{
  "project_info": {
    "project_number": "544148355623",
    "firebase_url": "https://sturdy-filament-289501.firebaseio.com",
    "project_id": "sturdy-filament-289501",
    "storage_bucket": "sturdy-filament-289501.appspot.com"
  },
  "client": [
    {
      "client_info": {
        "mobilesdk_app_id": "1:544148355623:android:fa7d3f38ef4a1c2d1d2c02",
        "android_client_info": {
          "package_name": "com.example.databasenosql"
        }
      },
      "oauth_client": [
        {
          "client_id": "544148355623-ogtfhhal8pghq69pp8992djgof1l6evj.apps.googleusercontent.com",
          "client_type": 3
        }
      ],
      "api_key": [
        {
          "current_key": "AIzaSyCPOx4jbEziIbzVSGmeFfNp8SPi5-Ep3hI"
        }
      ],
      "services": {
        "appinvite_service": {
          "other_platform_oauth_client": [
            {
              "client_id": "544148355623-ogtfhhal8pghq69pp8992djgof1l6evj.apps.googleusercontent.com",
              "client_type": 3
            }
          ]
        }
      }
    },
    {
      "client_info": {
        "mobilesdk_app_id": "1:544148355623:android:106fcecac88449ce1d2c02",
        "android_client_info": {
          "package_name": "com.example.firebasestrorage"
        }
      },
      "oauth_client": [
        {
          "client_id": "544148355623-ogtfhhal8pghq69pp8992djgof1l6evj.apps.googleusercontent.com",
          "client_type": 3
        }
      ],
      "api_key": [
        {
          "current_key": "AIzaSyCPOx4jbEziIbzVSGmeFfNp8SPi5-Ep3hI"
        }
      ],
      "services": {
        "appinvite_service": {
          "other_platform_oauth_client": [
            {
              "client_id": "544148355623-ogtfhhal8pghq69pp8992djgof1l6evj.apps.googleusercontent.com",
              "client_type": 3
            }
          ]
        }
      }
    }
  ],
  "configuration_version": "1"
}